{
  "checkin_count": "2", 
  "description": "null", 
  "friends_count": "1", 
  "hometown": "Thanjavur (Tanjore), India", 
  "top_badges": [], 
  "superuser_level": "null", 
  "followers_count": 0, 
  "profile_name": "Alex M.", 
  "other_profiles": [
    {
      "profile_link": "http://www.facebook.com/profile.php?id=1385357346", 
      "profile_logo": "https://ss1.4sqi.net/img/facebook_16-8221d882015899c7087b8e9a0d90f4a4.png"
    }
  ], 
  "following_count": 0, 
  "mayorships": "null", 
  "profile_picture": "https://irs1.4sqi.net/img/user/128x128/87361588-PSXQ2YN4GN2S2015.jpg"
}
