{
  "story": {
    "tagline": "http://imsach.in/"
  }, 
  "have_in_circles": "176 people", 
  "profile_picture": "lh4.googleusercontent.com/-_1KQYrzs890/AAAAAAAAAAI/AAAAAAAABdY/VTlhohGNE8w/s120-c/photo.jpg", 
  "in_circles": "142 people", 
  "basic_info": {
    "gender": "Male", 
    "other names": "Vetti"
  }, 
  "profile_name": "Sachin Philip Mathew", 
  "other_profiles": [
    {
      "profile": "YouTube", 
      "link": "http://www.youtube.com/user/sachinz100"
    }, 
    {
      "profile": "facebook", 
      "link": "http://facebook.com/sachinvettithanam"
    }, 
    {
      "profile": "Blog", 
      "link": "http://sachinin.blogspot.com"
    }, 
    {
      "profile": "Sachin Philip Mathew | Site", 
      "link": "http://imsach.in/"
    }, 
    {
      "profile": "Buzz", 
      "link": "https://profiles.google.com/115704832661347027000/buzz"
    }
  ], 
  "previous_location": "Kottayam", 
  "current_location": "Ernakulam", 
  "education": [
    {
      "school": "SMCET", 
      "details": "Computer Science, 2008 - 2012"
    }, 
    {
      "school": "Don Bosco HSS puthupally", 
      "details": "1994 - 2008"
    }
  ]
}
