{
  "bio": "Previously:\n\nAuthor, Killer Tech Tips, a 7,000+ reader blog that once received over 200,000 pageviews every month\nContributed to Problogger, MakeUseOf, and How To Geek\nFormer Zoho Intern. Worked on online marketing for Zoho Challenge. Helped get the app featured on BBC Click\nNow, Marketer at Freshdesk, one of India's hottest startups\nAlso, I publicly came out in December 2013. Not something I take pride in, but something you should know if you know me.\n\nYou can connect with me in these networks:", 
  "background_image": "http://d13pix9kaak6wt.cloudfront.net/background/users/s/h/a/shankarganesh_1371812116_84.jpg", 
  "links": [], 
  "tags": "", 
  "headline": "Marketer at Freshdesk", 
  "work": "", 
  "profile_name": "Shankar Ganesh", 
  "location": "", 
  "latest_posts": [], 
  "education": "", 
  "profile_picture": "null"
}
