{
  "username": "Sriniketh", 
  "organizations": [], 
  "popular_repos": "null", 
  "following_count": "0", 
  "works_for": "null", 
  "url": "null", 
  "repos_contributed_to": "null", 
  "join_date": "Nov 04, 2012", 
  "year_contributions": "0 total", 
  "followers_count": "0", 
  "profile_name": "Sriniketh Ramachandran", 
  "location": "India", 
  "longest_streak": "0 days"
}
