{
  "description": "Student. Tech enthusiast. Movie fanatic. Audiophile. ", 
  "profile_picture": "https://pbs.twimg.com/profile_images/477325836224167936/r43jvvcN_400x400.jpeg", 
  "media_tweets": "15", 
  "site_url": "null", 
  "profile_name": "Sriniketh", 
  "followers": "181", 
  "location": "Chennai, India", 
  "following": "853", 
  "favourites": "210", 
  "tweet_count": "1,309"
}
