{
  "story": {}, 
  "have_in_circles": "218 people", 
  "profile_picture": "lh6.googleusercontent.com/-vQ8ervyGCkM/AAAAAAAAAAI/AAAAAAAAA9o/6SAqryhIBms/s120-c/photo.jpg", 
  "in_circles": "334 people", 
  "basic_info": {
    "gender": "Male"
  }, 
  "profile_name": "Sriniketh Ramachandran", 
  "other_profiles": [
    {
      "profile": "YouTube", 
      "link": "http://www.youtube.com/channel/UCSirQYjjQyoQVPDkG90BLXw"
    }
  ], 
  "previous_location": "", 
  "current_location": "Chennai", 
  "education": [
    {
      "school": "Sastra University", 
      "details": "B.Tech Computer Science, 2011 - present"
    }, 
    {
      "school": "P.S.Senior Secondary School", 
      "details": "2011"
    }
  ]
}
