{
  "profile_picture": "http://m.c.lnkd.licdn.com/mpr/pub/image-FnDVl7L6gsHFv9JJ7Ct4T-9r8xTUXMtVFvtpTVM681GWOz4xFnDpgsC68iOWOM7tp8Ee/sriniketh-ramachandran.jpg", 
  "skills": [
    "Java", 
    "C++", 
    "C", 
    "Programming", 
    "Python", 
    "HTML", 
    "CSS", 
    "JavaScript", 
    "Android Development", 
    "jQuery", 
    "jQuery Mobile", 
    "Git"
  ], 
  "industry": "Internet", 
  "experience": [
    {
      "position": "Intern", 
      "organization": "Tata Consultancy Services"
    }
  ], 
  "summary": "A tech enthusiast who loves to code.", 
  "languages": [
    "Tamil", 
    "English", 
    "Hindi"
  ], 
  "headline": "Student at Sastra University", 
  "profile_name": "SrinikethRamachandran", 
  "location": "Chennai, Tamil Nadu, India", 
  "education": [
    {
      "course": "Bachelor's Degree,Computer Science ", 
      "school": "Shanmugha Arts, Science, Technology and Research Academy", 
      "period": "2011 \\u2013 2015(expected)"
    }, 
    {
      "course": "High School,Computer Science ", 
      "school": "P.S.Senior Secondary School", 
      "period": "1997 \\u2013 2011"
    }
  ]
}
